{
  "BazaJson": [
    {
      "Id": 1,
      "Name": "PIOTRKOWSKA",
      "Path": "D:\\Drive\\Programowanie\\VS\\ADM\\Administracja\\GIT\\Administracja\\bin\\Debug\\Baza\\PIOTRKOWSKA.FDB",
      "Show": "T",
      "Server": "localhost"
    },
    {
      "Id": 2,
      "Name": "KILINSKIEGO",
      "Path": "D:\\Drive\\Programowanie\\VS\\ADM\\Administracja\\GIT\\Administracja\\bin\\Debug\\Baza\\KILINSKIEGO.FDB",
      "Show": "T",
      "Server": "localhost"
    },
    {
      "Id": 3,
      "Name": "TESTY",
      "Path": "D:\\Drive\\Programowanie\\VS\\ADM\\Administracja\\GIT\\Administracja\\bin\\Debug\\Baza\\TESTY.FDB",
      "Show": "T",
      "Server": "localhost"
    }
  ],
  "Interest": 7
}